BaseException.h:14:2:BaseException::BaseException()	16	static
BaseException.h:15:10:BaseException::~BaseException()	16	static
BaseException.h:15:10:virtual BaseException::~BaseException()	16	static
BaseException.h:19:22:virtual const char* BaseException::what() const	16	static
SettingsManager.cpp:19:1:Storage::SettingsManager::SettingsManager(Storage::IStorage&)	16	static
SettingsManager.cpp:24:14:unsigned int Storage::SettingsManager::AppendToUserIDLookup(char*)	104	static
SettingsManager.cpp:43:14:unsigned int Storage::SettingsManager::GetSettingsFileNumber(char*)	96	static
SettingsManagerExceptions.h:13:7:SettingsManagerException::SettingsManagerException()	16	static
SettingsManager.cpp:65:6:void Storage::SettingsManager::WriteSettings(char*, UserSettings_t)	104	static
SettingsManager.cpp:90:16:UserSettings_t Storage::SettingsManager::ReadSettings(char*)	104	static
SettingsManager.cpp:117:1:Storage::SettingsManager::~SettingsManager()	16	static
SettingsManager.cpp:117:1:virtual Storage::SettingsManager::~SettingsManager()	16	static
SettingsManagerExceptions.h:13:7:SettingsManagerException::~SettingsManagerException()	16	static
SettingsManagerExceptions.h:13:7:virtual SettingsManagerException::~SettingsManagerException()	16	static
