IValidator.h:17:2:BusErrorDetection::IValidator::IValidator()	16	static
IValidator.h:23:10:BusErrorDetection::IValidator::~IValidator()	16	static
IValidator.h:23:10:virtual BusErrorDetection::IValidator::~IValidator()	16	static
CRCValidator.h:24:11:virtual uint32_t BusErrorDetection::CRCValidator::GetCodeLength() const	16	static
CRCValidator.cpp:13:1:BusErrorDetection::CRCValidator::CRCValidator(CRC_HandleTypeDef*)	16	static
CRCValidator.cpp:18:6:virtual bool BusErrorDetection::CRCValidator::IsValid(uint8_t*, uint32_t) const	24	static
CRCValidator.cpp:23:10:virtual uint32_t BusErrorDetection::CRCValidator::ComputeCode(uint8_t*, uint32_t)	32	static
CRCValidator.cpp:33:1:BusErrorDetection::CRCValidator::~CRCValidator()	16	static
CRCValidator.cpp:33:1:virtual BusErrorDetection::CRCValidator::~CRCValidator()	16	static
