main.c:74:5:main	24	static
main.c:132:6:HAL_DCMI_FrameEventCallback	24	static
main.c:143:6:SystemClock_Config	304	static
main.c:208:13:MX_DCMI_Init	8	static
main.c:245:13:MX_USART1_UART_Init	8	static
main.c:291:13:MX_DMA_Init	16	static
main.c:309:13:MX_GPIO_Init	56	static
main.c:339:6:Error_Handler	4	static
