main.c:69:5:main	8	static
main.c:115:6:SystemClock_Config	304	static
main.c:179:13:MX_SPI1_Init	8	static
main.c:224:13:MX_DMA_Init	16	static
main.c:245:13:MX_GPIO_Init	32	static
main.c:272:6:Error_Handler	4	static
