AProcess.h:15:2:Util::AProcess::AProcess()	16	static
AProcess.h:17:15:virtual void Util::AProcess::OnEnter()	16	static
AProcess.h:18:15:virtual void Util::AProcess::Run()	16	static
AProcess.h:19:15:virtual void Util::AProcess::OnExit()	16	static
AProcess.h:21:10:Util::AProcess::~AProcess()	16	static
AProcess.h:21:10:virtual Util::AProcess::~AProcess()	16	static
Interruptable.h:15:2:Util::Interruptable::Interruptable()	16	static
Interruptable.h:19:10:Util::Interruptable::~Interruptable()	16	static
Interruptable.h:19:10:virtual Util::Interruptable::~Interruptable()	16	static
BaseException.h:14:2:BaseException::BaseException()	16	static
BaseException.h:15:10:BaseException::~BaseException()	16	static
BaseException.h:15:10:virtual BaseException::~BaseException()	16	static
BaseException.h:19:22:virtual const char* BaseException::what() const	16	static
SPI.h:59:7:virtual void Serial::SPI::OnEnter()	16	static
SPI.h:60:7:virtual void Serial::SPI::OnExit()	16	static
SPI.cpp:13:1:Serial::SPI::SPI(SPI_HandleTypeDef&, DMA_HandleTypeDef&, DMA_HandleTypeDef&)	24	static
SPI.cpp:23:6:virtual void Serial::SPI::Write(uint16_t, const uint8_t*, uint16_t)	24	static
SPIExceptions.h:13:7:SPIException::SPIException()	16	static
SPIExceptions.h:13:7:SPIException::~SPIException()	16	static
SPIExceptions.h:13:7:virtual SPIException::~SPIException()	16	static
SPIExceptions.h:17:7:TimeoutError::TimeoutError()	16	static
SPI.cpp:27:6:void Serial::SPI::Write(uint16_t, const uint8_t*, uint16_t, uint32_t)	40	static
SPI.cpp:34:6:virtual void Serial::SPI::Read(uint16_t, uint8_t*, uint16_t)	24	static
SPI.cpp:38:6:void Serial::SPI::Read(uint16_t, uint8_t*, uint16_t, uint32_t)	40	static
SPIExceptions.h:15:7:AsyncReceptionError::AsyncReceptionError()	16	static
SPI.cpp:45:6:void Serial::SPI::BeginReadAsync(uint8_t*, uint16_t)	40	static
SPIExceptions.h:16:7:AsyncTransmissionError::AsyncTransmissionError()	16	static
SPI.cpp:54:6:void Serial::SPI::BeginWriteAsync(uint8_t*, uint16_t)	40	static
SPI.cpp:66:6:virtual void Serial::SPI::OnInterrupt(uint16_t)	16	static
SPI.cpp:72:6:virtual void Serial::SPI::Run()	24	static
SPI.cpp:104:1:Serial::SPI::~SPI()	16	static
SPI.cpp:104:1:virtual Serial::SPI::~SPI()	16	static
SPIExceptions.h:17:7:TimeoutError::~TimeoutError()	16	static
SPIExceptions.h:17:7:virtual TimeoutError::~TimeoutError()	16	static
SPIExceptions.h:16:7:AsyncTransmissionError::~AsyncTransmissionError()	16	static
SPIExceptions.h:16:7:virtual AsyncTransmissionError::~AsyncTransmissionError()	16	static
SPIExceptions.h:15:7:AsyncReceptionError::~AsyncReceptionError()	16	static
SPIExceptions.h:15:7:virtual AsyncReceptionError::~AsyncReceptionError()	16	static
